......
----------------------------------------------------------------------
Ran 6 tests in 0.001s

OK
Name               Stmts   Miss Branch BrPart  Cover   Missing
--------------------------------------------------------------
Diplomacy.py          95      2     54      3    97%   38, 88, 37->38, 57->34, 87->88
TestDiplomacy.py      32      0      2      1    97%   85->exit
--------------------------------------------------------------
TOTAL                127      2     56      4    97%
